ISSS626-GAA - Take Home Exercise 2 : Discovering impacts of COVID-19 on Thailand tourism economy at the province level using spatial and spatio-temporal statistics
…
6.1.1.2 Reshape the Data

Use pivot_wider to create new columns based on the variables in Column F, using Column G as the values.

tourism_data_wide <- tourism_data %>%
  pivot_wider(
    names_from = variable,
    values_from = value,
    values_fill = NA  # Fill missing values with NA 
    )  #%>% 
  #filter(!is.na(revenue_all) & revenue_all != 0)

tourism_data_wide

# A tibble: 3,850 × 13
   date       province_thai province_eng             region_thai region_eng
   <date>     <chr>         <chr>                    <chr>       <chr>     
 1 2019-01-01 กรุงเทพมหานคร  Bangkok                  ภาคกลาง     central   
 2 2019-01-01 ลพบุรี          Lopburi                  ภาคกลาง     central   
 3 2019-01-01 พระนครศรีอยุธยา Phra Nakhon Si Ayutthaya ภาคกลาง     central   
 4 2019-01-01 สระบุรี         Saraburi                 ภาคกลาง     central   
 5 2019-01-01 ชัยนาท         Chainat                  ภาคกลาง     central   
 6 2019-01-01 นครปฐม        Nakhon Pathom            ภาคกลาง     central   
 7 2019-01-01 สิงห์บุรี         Sing Buri                ภาคกลาง     central   
 8 2019-01-01 อ่างทอง        Ang Thong                ภาคกลาง     central   
 9 2019-01-01 นนทบุรี         Nonthaburi               ภาคกลาง     central   
10 2019-01-01 ปทุมธานี        Pathum Thani             ภาคกลาง     central   
# ℹ 3,840 more rows
# ℹ 8 more variables: ratio_tourist_stay <dbl>, no_tourist_stay <dbl>,
#   no_tourist_all <dbl>, no_tourist_thai <dbl>, no_tourist_foreign <dbl>,
#   revenue_all <dbl>, revenue_thai <dbl>, revenue_foreign <dbl>
…
tourism_data_new <- tourism_data_wide %>%
  select(date, province_thai, province_eng, region_eng, 
         no_tourist_all, no_tourist_foreign, 
         no_tourist_stay, no_tourist_thai, 
         ratio_tourist_stay, revenue_all, 
         revenue_foreign, revenue_thai) %>%
  mutate(
    Month_num = month(date),  # Extract numeric month
    Month_fac = month(date, label = TRUE, abbr = TRUE),  # Extract abbreviated month as factor
    Month_year = paste0(Month_fac, "-", year(date))  # Create 'month-year' column
  )

print(tourism_data_new)

# A tibble: 3,850 × 15
   date       province_thai province_eng             region_eng no_tourist_all
   <date>     <chr>         <chr>                    <chr>               <dbl>
 1 2019-01-01 กรุงเทพมหานคร  Bangkok                  central           5959075
 2 2019-01-01 ลพบุรี          Lopburi                  central            268664
 3 2019-01-01 พระนครศรีอยุธยา Phra Nakhon Si Ayutthaya central            730329
 4 2019-01-01 สระบุรี         Saraburi                 central            207236
 5 2019-01-01 ชัยนาท         Chainat                  central             79073
 6 2019-01-01 นครปฐม        Nakhon Pathom            central            296107
 7 2019-01-01 สิงห์บุรี         Sing Buri                central             49438
 8 2019-01-01 อ่างทอง        Ang Thong                central            104097
 9 2019-01-01 นนทบุรี         Nonthaburi               central            323717
10 2019-01-01 ปทุมธานี        Pathum Thani             central            233295
# ℹ 3,840 more rows
# ℹ 10 more variables: no_tourist_foreign <dbl>, no_tourist_stay <dbl>,
#   no_tourist_thai <dbl>, ratio_tourist_stay <dbl>, revenue_all <dbl>,
#   revenue_foreign <dbl>, revenue_thai <dbl>, Month_num <dbl>,
#   Month_fac <ord>, Month_year <chr>
…
